dump.vcd
$date
	Fri May 17 18:52:01 2024
$end

$version
	Synopsys VCS version V-2023.12
$end

$timescale
	1s
$end

$comment Csum: 1 64dd0ebccd5a63ad $end


$scope module $unit $end
$upscope $end


$scope module top_tb $end
$var reg 1 ! i_Clk $end
$var reg 1 " i_SPI_Clk $end
$var reg 1 # reset $end

$scope begin unnamed$$_vcs_4 $end
$upscope $end


$scope begin unnamed$$_vcs_0 $end
$upscope $end


$scope begin unnamed$$_vcs_1 $end
$upscope $end


$scope begin unnamed$$_vcs_2 $end
$upscope $end


$scope begin unnamed$$_vcs_3 $end
$upscope $end


$scope begin unnamed$$_vcs_5 $end
$upscope $end


$scope module intf $end
$var reg 1 $ i_Clk $end
$var reg 1 % o_RX_DV $end
$var reg 1 & i_TX_DV $end
$var reg 1 ' o_SPI_MISO $end
$var reg 1 ( i_SPI_MOSI $end
$var reg 1 ) i_SPI_CS_n $end
$var reg 8 * o_RX_Byte [7:0] $end
$var reg 8 + i_TX_Byte [7:0] $end
$var reg 1 , i_SPI_Clk $end
$var reg 1 - reset $end
$upscope $end


$scope module dut $end
$var wire 1 . i_Rst_L $end
$var wire 1 / i_Clk $end
$var reg 1 0 o_RX_DV $end
$var reg 8 1 o_RX_Byte [7:0] $end
$var wire 1 2 i_TX_DV $end
$var wire 8 3 i_TX_Byte [7:0] $end
$var wire 1 4 i_SPI_Clk $end
$var reg 1 ' o_SPI_MISO $end
$var wire 1 5 i_SPI_MOSI $end
$var wire 1 6 i_SPI_CS_n $end
$var wire 1 7 w_CPOL $end
$var wire 1 8 w_CPHA $end
$var wire 1 4 w_SPI_Clk $end
$var wire 1 9 w_SPI_MISO_Mux $end
$var reg 3 : r_RX_Bit_Count [2:0] $end
$var reg 3 ; r_TX_Bit_Count [2:0] $end
$var reg 8 < r_Temp_RX_Byte [7:0] $end
$var reg 8 = r_RX_Byte [7:0] $end
$var reg 1 > r_RX_Done $end
$var reg 1 ? r2_RX_Done $end
$var reg 1 @ r3_RX_Done $end
$var reg 8 A r_TX_Byte [7:0] $end
$var reg 1 B r_SPI_MISO_Bit $end
$var reg 1 C r_Preload_MISO $end
$upscope $end

$upscope $end


$scope module uvm_pkg $end
$var time 64 D setting_offset $end
$var reg 32 E uvm_global_random_seed [31:0] $end
$var reg 32 F UVM_UNBOUNDED_CONNECTIONS [31:0] $end
$var reg 1 G uvm_start_uvm_declarations $end
$var reg 32 H setting_verbosity [31:0] $end
$var reg 1 I is_verdi_set_verbosity_called $end
$var reg 1 J is_uvm_factory_trace_checked $end
$var reg 1 K is_verdi_trace_fac $end
$upscope $end

$enddefinitions $end

#0
$dumpvars
1J
0I
0K
1G
bxxxxxxxxxxxxxxxxxxxxxxxxxxxxxxxxxxxxxxxxxxxxxxxxxxxxxxxxxxxxxxxx D
b11111111111111111111111111111111 F
b00000000000000000000000000000000 H
b01000010000001111100110001000111 E
0!
0"
0#
bxxxxxxxx +
b00000000 *
00
0?
0@
xC
x>
xB
x9
b00000000 1
bxxx :
bxxxxxxxx =
bxxx ;
b00000000 A
bxxxxxxxx <
08
07
0.
bxxxxxxxx 3
06
x5
x2
0$
0,
0-
0/
04
0)
x(
x&
0%
x'
$end
#5
1!
1/
1$
1&
12
b00011100 +
b00011100 3
b00000000 +
b00000000 3
#10
0!
0/
0$
#15
1!
1/
1$
0(
05
0&
02
#20
1"
14
1,
1#
1.
1-
0!
0/
0$
bxxxxxxx0 <
0C
#25
1!
1/
1$
x?
1&
12
b00011100 +
b00011100 3
#30
0!
0/
0$
#35
1!
1/
1$
x@
b00011100 A
0&
02
#40
0"
04
0,
0!
0/
0$
#45
1!
1/
1$
1&
12
#50
0!
0/
0$
#55
1!
1/
1$
0&
02
#60
1"
14
1,
0!
0/
0$
bxxxxxx00 <
#65
1!
1/
1$
1&
12
#70
0!
0/
0$
#75
1!
1/
1$
0&
02
#80
0"
04
0,
0!
0/
0$
#85
1!
1/
1$
1&
12
#90
0!
0/
0$
#95
1!
1/
1$
0&
02
#100
1"
14
1,
0!
0/
0$
bxxxxx000 <
#105
1!
1/
1$
1&
12
#110
0!
0/
0$
#115
1!
1/
1$
0&
02
#120
0"
04
0,
0!
0/
0$
#125
1!
1/
1$
1&
12
#130
0!
0/
0$
#135
1!
1/
1$
0&
02
#140
1"
14
1,
0!
0/
0$
bxxxx0000 <
#145
1!
1/
1$
1&
12
#150
0!
0/
0$
#155
1!
1/
1$
0&
02
#160
0"
04
0,
0!
0/
0$
#165
1!
1/
1$
1&
12
#170
0!
0/
0$
#175
1!
1/
1$
0&
02
#180
1"
14
1,
0!
0/
0$
bxxx00000 <
#185
1!
1/
1$
#190
0!
0/
0$
#195
1!
1/
1$
#200
0"
04
0,
0!
0/
0$
1)
16
z'
b000 :
0>
1C
09
b111 ;
0B
#205
1!
1/
1$
0?
#210
0!
0/
0$
#215
1!
1/
1$
0@
#220
1"
14
1,
0!
0/
0$
0)
06
0'
#225
1!
1/
1$
#230
0!
0/
0$
#235
1!
1/
1$
#240
0"
04
0,
0!
0/
0$
1)
16
z'
#245
1!
1/
1$
#250
0!
0/
0$
#255
1!
1/
1$
#260
1"
14
1,
0!
0/
0$
0)
06
0'
#265
1!
1/
1$
#270
0!
0/
0$
#275
1!
1/
1$
#280
0"
04
0,
0!
0/
0$
1)
16
z'
#285
1!
1/
1$
#290
0!
0/
0$
#295
1!
1/
1$
#300
1"
14
1,
0!
0/
0$
0)
06
0'
#305
1!
1/
1$
#310
0!
0/
0$
#315
1!
1/
1$
#320
0"
04
0,
0!
0/
0$
1)
16
z'
#325
1!
1/
1$
#330
0!
0/
0$
#335
1!
1/
1$
#340
1"
14
1,
0!
0/
0$
0)
06
0'
#345
1!
1/
1$
#350
0!
0/
0$
#355
1!
1/
1$
#360
0"
04
0,
0!
0/
0$
1)
16
z'
0)
06
0'
#365
1!
1/
1$
1&
12
b10001101 +
b10001101 3
#370
0!
0/
0$
#375
1!
1/
1$
b10001101 A
19
0&
02
1'
#380
1"
14
1,
0!
0/
0$
b001 :
bxx000000 <
0C
09
b110 ;
1B
19
1'
#385
1!
1/
1$
1&
12
#390
0!
0/
0$
#395
1!
1/
1$
0&
02
#400
0"
04
0,
0!
0/
0$
#405
1!
1/
1$
1&
12
#410
0!
0/
0$
#415
1!
1/
1$
0&
02
#420
1"
14
1,
0!
0/
0$
b010 :
bx0000000 <
b101 ;
0B
09
0'
#425
1!
1/
1$
1&
12
#430
0!
0/
0$
#435
1!
1/
1$
0&
02
#440
0"
04
0,
0!
0/
0$
#445
1!
1/
1$
1&
12
#450
0!
0/
0$
#455
1!
1/
1$
0&
02
#460
1"
14
1,
0!
0/
0$
b011 :
b00000000 <
b100 ;
#465
1!
1/
1$
1&
12
#470
0!
0/
0$
#475
1!
1/
1$
0&
02
#480
0"
04
0,
0!
0/
0$
#485
1!
1/
1$
1&
12
#490
0!
0/
0$
#495
1!
1/
1$
0&
02
#500
1"
14
1,
0!
0/
0$
b100 :
b011 ;
#505
1!
1/
1$
1&
12
#510
0!
0/
0$
#515
1!
1/
1$
0&
02
#520
0"
04
0,
0!
0/
0$
#525
1!
1/
1$
1&
12
#530
0!
0/
0$
#535
1!
1/
1$
0&
02
#540
1"
14
1,
0!
0/
0$
b101 :
b010 ;
1B
19
1'
#545
1!
1/
1$
#550
0!
0/
0$
#555
1!
1/
1$
#560
0"
04
0,
0!
0/
0$
1)
16
z'
b000 :
1C
b111 ;
#565
1!
1/
1$
#570
0!
0/
0$
#575
1!
1/
1$
#580
1"
14
1,
0!
0/
0$
0)
06
1'
#585
1!
1/
1$
#590
0!
0/
0$
#595
1!
1/
1$
#600
0"
04
0,
0!
0/
0$
1)
16
z'
#605
1!
1/
1$
#610
0!
0/
0$
#615
1!
1/
1$
#620
1"
14
1,
0!
0/
0$
0)
06
1'
#625
1!
1/
1$
#630
0!
0/
0$
#635
1!
1/
1$
#640
0"
04
0,
0!
0/
0$
1)
16
z'
#645
1!
1/
1$
#650
0!
0/
0$
#655
1!
1/
1$
#660
1"
14
1,
0!
0/
0$
0)
06
1'
#665
1!
1/
1$
#670
0!
0/
0$
#675
1!
1/
1$
#680
0"
04
0,
0!
0/
0$
1)
16
z'
#685
1!
1/
1$
#690
0!
0/
0$
#695
1!
1/
1$
#700
1"
14
1,
0!
0/
0$
0)
06
1'
#705
1!
1/
1$
#710
0!
0/
0$
#715
1!
1/
1$
#720
0"
04
0,
0!
0/
0$
1)
16
z'
0)
06
1'
#725
1!
1/
1$
1&
12
b10110110 +
b10110110 3
#730
0!
0/
0$
#735
1!
1/
1$
b10110110 A
0&
02
#740
1"
14
1,
0!
0/
0$
b001 :
0C
b110 ;
#745
1!
1/
1$
1&
12
#750
0!
0/
0$
#755
1!
1/
1$
0&
02
#760
0"
04
0,
0!
0/
0$
#765
1!
1/
1$
1&
12
#770
0!
0/
0$
#775
1!
1/
1$
0&
02
#780
1"
14
1,
0!
0/
0$
b010 :
b101 ;
0B
09
0'
#785
1!
1/
1$
1&
12
#790
0!
0/
0$
#795
1!
1/
1$
0&
02
#800
0"
04
0,
0!
0/
0$
#805
1!
1/
1$
1&
12
#810
0!
0/
0$
#815
1!
1/
1$
0&
02
#820
1"
14
1,
0!
0/
0$
b011 :
b100 ;
1B
19
1'
#825
1!
1/
1$
1&
12
#830
0!
0/
0$
#835
1!
1/
1$
0&
02
#840
0"
04
0,
0!
0/
0$
#845
1!
1/
1$
1&
12
#850
0!
0/
0$
#855
1!
1/
1$
0&
02
#860
1"
14
1,
0!
0/
0$
b100 :
b011 ;
#865
1!
1/
1$
1&
12
#870
0!
0/
0$
#875
1!
1/
1$
0&
02
#880
0"
04
0,
0!
0/
0$
#885
1!
1/
1$
1&
12
#890
0!
0/
0$
#895
1!
1/
1$
0&
02
#900
1"
14
1,
0!
0/
0$
b101 :
b010 ;
0B
09
0'
#905
1!
1/
1$
#910
0!
0/
0$
#915
1!
1/
1$
#920
0"
04
0,
0!
0/
0$
1)
16
z'
b000 :
1C
19
b111 ;
1B
#925
1!
1/
1$
#930
0!
0/
0$
#935
1!
1/
1$
#940
1"
14
1,
0!
0/
0$
0)
06
1'
#945
1!
1/
1$
#950
0!
0/
0$
#955
1!
1/
1$
#960
0"
04
0,
0!
0/
0$
1)
16
z'
#965
1!
1/
1$
#970
0!
0/
0$
#975
1!
1/
1$
#980
1"
14
1,
0!
0/
0$
0)
06
1'
#985
1!
1/
1$
#990
0!
0/
0$
#995
1!
1/
1$
#1000
0"
04
0,
0!
0/
0$
1)
16
z'
#1005
1!
1/
1$
#1010
0!
0/
0$
#1015
1!
1/
1$
#1020
1"
14
1,
0!
0/
0$
0)
06
1'
#1025
1!
1/
1$
#1030
0!
0/
0$
#1035
1!
1/
1$
#1040
0"
04
0,
0!
0/
0$
1)
16
z'
#1045
1!
1/
1$
#1050
0!
0/
0$
#1055
1!
1/
1$
#1060
1"
14
1,
0!
0/
0$
0)
06
1'
#1065
1!
1/
1$
#1070
0!
0/
0$
#1075
1!
1/
1$
#1080
0"
04
0,
0!
0/
0$
1)
16
z'
0)
06
1'
#1085
1!
1/
1$
1&
12
b00001111 +
b00001111 3
#1090
0!
0/
0$
#1095
1!
1/
1$
b00001111 A
09
0&
02
0'
#1100
1"
14
1,
0!
0/
0$
b001 :
0C
19
b110 ;
0B
09
0'
#1105
1!
1/
1$
1&
12
#1110
0!
0/
0$
#1115
1!
1/
1$
0&
02
#1120
0"
04
0,
0!
0/
0$
#1125
1!
1/
1$
1&
12
#1130
0!
0/
0$
#1135
1!
1/
1$
0&
02
#1140
1"
14
1,
0!
0/
0$
b010 :
b101 ;
#1145
1!
1/
1$
1&
12
#1150
0!
0/
0$
#1155
1!
1/
1$
0&
02
#1160
0"
04
0,
0!
0/
0$
#1165
1!
1/
1$
1&
12
#1170
0!
0/
0$
#1175
1!
1/
1$
0&
02
#1180
1"
14
1,
0!
0/
0$
b011 :
b100 ;
#1185
1!
1/
1$
1&
12
#1190
0!
0/
0$
#1195
1!
1/
1$
0&
02
#1200
0"
04
0,
0!
0/
0$
#1205
1!
1/
1$
1&
12
#1210
0!
0/
0$
#1215
1!
1/
1$
0&
02
#1220
1"
14
1,
0!
0/
0$
b100 :
b011 ;
#1225
1!
1/
1$
1&
12
#1230
0!
0/
0$
#1235
1!
1/
1$
0&
02
#1240
0"
04
0,
0!
0/
0$
#1245
1!
1/
1$
1&
12
#1250
0!
0/
0$
#1255
1!
1/
1$
0&
02
#1260
1"
14
1,
0!
0/
0$
b101 :
b010 ;
1B
19
1'
#1265
1!
1/
1$
#1270
0!
0/
0$
#1275
1!
1/
1$
#1280
0"
04
0,
0!
0/
0$
1)
16
z'
b000 :
1C
09
b111 ;
0B
#1285
1!
1/
1$
#1290
0!
0/
0$
#1295
1!
1/
1$
#1300
1"
14
1,
0!
0/
0$
0)
06
0'
#1305
1!
1/
1$
#1310
0!
0/
0$
#1315
1!
1/
1$
#1320
0"
04
0,
0!
0/
0$
1)
16
z'
#1325
1!
1/
1$
#1330
0!
0/
0$
#1335
1!
1/
1$
#1340
1"
14
1,
0!
0/
0$
0)
06
0'
#1345
1!
1/
1$
#1350
0!
0/
0$
#1355
1!
1/
1$
#1360
0"
04
0,
0!
0/
0$
1)
16
z'
#1365
1!
1/
1$
#1370
0!
0/
0$
#1375
1!
1/
1$
#1380
1"
14
1,
0!
0/
0$
0)
06
0'
#1385
1!
1/
1$
#1390
0!
0/
0$
#1395
1!
1/
1$
#1400
0"
04
0,
0!
0/
0$
1)
16
z'
#1405
1!
1/
1$
#1410
0!
0/
0$
#1415
1!
1/
1$
#1420
1"
14
1,
0!
0/
0$
0)
06
0'
#1425
1!
1/
1$
#1430
0!
0/
0$
#1435
1!
1/
1$
#1440
0"
04
0,
0!
0/
0$
1)
16
z'
0)
06
0'
#1445
1!
1/
1$
1&
12
b10110000 +
b10110000 3
#1450
0!
0/
0$
#1455
1!
1/
1$
b10110000 A
19
0&
02
1'
#1460
1"
14
1,
0!
0/
0$
b001 :
0C
09
b110 ;
1B
19
1'
#1465
1!
1/
1$
1&
12
#1470
0!
0/
0$
#1475
1!
1/
1$
0&
02
#1480
0"
04
0,
0!
0/
0$
#1485
1!
1/
1$
1&
12
#1490
0!
0/
0$
#1495
1!
1/
1$
0&
02
#1500
1"
14
1,
0!
0/
0$
b010 :
b101 ;
0B
09
0'
#1505
1!
1/
1$
1&
12
#1510
0!
0/
0$
#1515
1!
1/
1$
0&
02
#1520
0"
04
0,
0!
0/
0$
#1525
1!
1/
1$
1&
12
#1530
0!
0/
0$
#1535
1!
1/
1$
0&
02
#1540
1"
14
1,
0!
0/
0$
b011 :
b100 ;
1B
19
1'
#1545
1!
1/
1$
1&
12
#1550
0!
0/
0$
#1555
1!
1/
1$
0&
02
#1560
0"
04
0,
0!
0/
0$
#1565
1!
1/
1$
1&
12
#1570
0!
0/
0$
#1575
1!
1/
1$
0&
02
#1580
1"
14
1,
0!
0/
0$
b100 :
b011 ;
#1585
1!
1/
1$
1&
12
#1590
0!
0/
0$
#1595
1!
1/
1$
0&
02
#1600
0"
04
0,
0!
0/
0$
#1605
1!
1/
1$
1&
12
#1610
0!
0/
0$
#1615
1!
1/
1$
0&
02
#1620
1"
14
1,
0!
0/
0$
b101 :
b010 ;
0B
09
0'
#1625
1!
1/
1$
#1630
0!
0/
0$
#1635
1!
1/
1$
#1640
0"
04
0,
0!
0/
0$
1)
16
z'
b000 :
1C
19
b111 ;
1B
#1645
1!
1/
1$
#1650
0!
0/
0$
#1655
1!
1/
1$
#1660
1"
14
1,
0!
0/
0$
0)
06
1'
#1665
1!
1/
1$
#1670
0!
0/
0$
#1675
1!
1/
1$
#1680
0"
04
0,
0!
0/
0$
1)
16
z'
#1685
1!
1/
1$
#1690
0!
0/
0$
#1695
1!
1/
1$
#1700
1"
14
1,
0!
0/
0$
0)
06
1'
#1705
1!
1/
1$
#1710
0!
0/
0$
#1715
1!
1/
1$
#1720
0"
04
0,
0!
0/
0$
1)
16
z'
#1725
1!
1/
1$
#1730
0!
0/
0$
#1735
1!
1/
1$
#1740
1"
14
1,
0!
0/
0$
0)
06
1'
#1745
1!
1/
1$
#1750
0!
0/
0$
#1755
1!
1/
1$
#1760
0"
04
0,
0!
0/
0$
1)
16
z'
#1765
1!
1/
1$
#1770
0!
0/
0$
#1775
1!
1/
1$
#1780
1"
14
1,
0!
0/
0$
0)
06
1'
#1785
1!
1/
1$
#1790
0!
0/
0$
#1795
1!
1/
1$
#1800
0"
04
0,
0!
0/
0$
1)
16
z'
0)
06
1'
#1805
1!
1/
1$
1&
12
b10010101 +
b10010101 3
#1810
0!
0/
0$
#1815
1!
1/
1$
b10010101 A
0&
02
#1820
1"
14
1,
0!
0/
0$
b001 :
0C
b110 ;
#1825
1!
1/
1$
1&
12
#1830
0!
0/
0$
#1835
1!
1/
1$
0&
02
#1840
0"
04
0,
0!
0/
0$
#1845
1!
1/
1$
1&
12
#1850
0!
0/
0$
#1855
1!
1/
1$
0&
02
#1860
1"
14
1,
0!
0/
0$
b010 :
b101 ;
0B
09
0'
#1865
1!
1/
1$
1&
12
#1870
0!
0/
0$
#1875
1!
1/
1$
0&
02
#1880
0"
04
0,
0!
0/
0$
#1885
1!
1/
1$
1&
12
#1890
0!
0/
0$
#1895
1!
1/
1$
0&
02
#1900
1"
14
1,
0!
0/
0$
b011 :
b100 ;
#1905
1!
1/
1$
1&
12
#1910
0!
0/
0$
#1915
1!
1/
1$
0&
02
#1920
0"
04
0,
0!
0/
0$
#1925
1!
1/
1$
1&
12
#1930
0!
0/
0$
#1935
1!
1/
1$
0&
02
#1940
1"
14
1,
0!
0/
0$
b100 :
b011 ;
1B
19
1'
#1945
1!
1/
1$
1&
12
#1950
0!
0/
0$
#1955
1!
1/
1$
0&
02
#1960
0"
04
0,
0!
0/
0$
#1965
1!
1/
1$
1&
12
#1970
0!
0/
0$
#1975
1!
1/
1$
0&
02
#1980
1"
14
1,
0!
0/
0$
b101 :
b010 ;
0B
09
0'
#1985
1!
1/
1$
#1990
0!
0/
0$
#1995
1!
1/
1$
#2000
0"
04
0,
0!
0/
0$
1)
16
z'
b000 :
1C
19
b111 ;
1B
#2005
1!
1/
1$
#2010
0!
0/
0$
#2015
1!
1/
1$
#2020
1"
14
1,
0!
0/
0$
0)
06
1'
#2025
1!
1/
1$
#2030
0!
0/
0$
#2035
1!
1/
1$
#2040
0"
04
0,
0!
0/
0$
1)
16
z'
#2045
1!
1/
1$
#2050
0!
0/
0$
#2055
1!
1/
1$
#2060
1"
14
1,
0!
0/
0$
0)
06
1'
#2065
1!
1/
1$
#2070
0!
0/
0$
#2075
1!
1/
1$
#2080
0"
04
0,
0!
0/
0$
1)
16
z'
#2085
1!
1/
1$
#2090
0!
0/
0$
#2095
1!
1/
1$
#2100
1"
14
1,
0!
0/
0$
0)
06
1'
#2105
1!
1/
1$
#2110
0!
0/
0$
#2115
1!
1/
1$
#2120
0"
04
0,
0!
0/
0$
1)
16
z'
#2125
1!
1/
1$
#2130
0!
0/
0$
#2135
1!
1/
1$
#2140
1"
14
1,
0!
0/
0$
0)
06
1'
#2145
1!
1/
1$
#2150
0!
0/
0$
#2155
1!
1/
1$
#2160
0"
04
0,
0!
0/
0$
1)
16
z'
0)
06
1'
#2165
1!
1/
1$
1&
12
b01111011 +
b01111011 3
#2170
0!
0/
0$
#2175
1!
1/
1$
b01111011 A
09
0&
02
0'
#2180
1"
14
1,
0!
0/
0$
b001 :
0C
19
b110 ;
0B
09
0'
#2185
1!
1/
1$
1&
12
#2190
0!
0/
0$
#2195
1!
1/
1$
0&
02
#2200
0"
04
0,
0!
0/
0$
#2205
1!
1/
1$
1&
12
#2210
0!
0/
0$
#2215
1!
1/
1$
0&
02
#2220
1"
14
1,
0!
0/
0$
b010 :
b101 ;
1B
19
1'
#2225
1!
1/
1$
1&
12
#2230
0!
0/
0$
#2235
1!
1/
1$
0&
02
#2240
0"
04
0,
0!
0/
0$
#2245
1!
1/
1$
1&
12
#2250
0!
0/
0$
#2255
1!
1/
1$
0&
02
#2260
1"
14
1,
0!
0/
0$
b011 :
b100 ;
#2265
1!
1/
1$
1&
12
#2270
0!
0/
0$
#2275
1!
1/
1$
0&
02
#2280
0"
04
0,
0!
0/
0$
#2285
1!
1/
1$
1&
12
#2290
0!
0/
0$
#2295
1!
1/
1$
0&
02
#2300
1"
14
1,
0!
0/
0$
b100 :
b011 ;
#2305
1!
1/
1$
1&
12
#2310
0!
0/
0$
#2315
1!
1/
1$
0&
02
#2320
0"
04
0,
0!
0/
0$
#2325
1!
1/
1$
1&
12
#2330
0!
0/
0$
#2335
1!
1/
1$
0&
02
#2340
1"
14
1,
0!
0/
0$
b101 :
b010 ;
#2345
1!
1/
1$
#2350
0!
0/
0$
#2355
1!
1/
1$
#2360
0"
04
0,
0!
0/
0$
1)
16
z'
b000 :
1C
09
b111 ;
0B
#2365
1!
1/
1$
#2370
0!
0/
0$
#2375
1!
1/
1$
#2380
1"
14
1,
0!
0/
0$
0)
06
0'
#2385
1!
1/
1$
#2390
0!
0/
0$
#2395
1!
1/
1$
#2400
0"
04
0,
0!
0/
0$
1)
16
z'
#2405
1!
1/
1$
#2410
0!
0/
0$
#2415
1!
1/
1$
#2420
1"
14
1,
0!
0/
0$
0)
06
0'
#2425
1!
1/
1$
#2430
0!
0/
0$
#2435
1!
1/
1$
#2440
0"
04
0,
0!
0/
0$
1)
16
z'
#2445
1!
1/
1$
#2450
0!
0/
0$
#2455
1!
1/
1$
#2460
1"
14
1,
0!
0/
0$
0)
06
0'
#2465
1!
1/
1$
#2470
0!
0/
0$
#2475
1!
1/
1$
#2480
0"
04
0,
0!
0/
0$
1)
16
z'
#2485
1!
1/
1$
#2490
0!
0/
0$
#2495
1!
1/
1$
#2500
1"
14
1,
0!
0/
0$
0)
06
0'
#2505
1!
1/
1$
#2510
0!
0/
0$
#2515
1!
1/
1$
#2520
0"
04
0,
0!
0/
0$
1)
16
z'
0)
06
0'
#2525
1!
1/
1$
1&
12
b00001101 +
b00001101 3
#2530
0!
0/
0$
#2535
1!
1/
1$
b00001101 A
0&
02
#2540
1"
14
1,
0!
0/
0$
b001 :
0C
b110 ;
#2545
1!
1/
1$
1&
12
#2550
0!
0/
0$
#2555
1!
1/
1$
0&
02
#2560
0"
04
0,
0!
0/
0$
#2565
1!
1/
1$
1&
12
#2570
0!
0/
0$
#2575
1!
1/
1$
0&
02
#2580
1"
14
1,
0!
0/
0$
b010 :
b101 ;
#2585
1!
1/
1$
1&
12
#2590
0!
0/
0$
#2595
1!
1/
1$
0&
02
#2600
0"
04
0,
0!
0/
0$
#2605
1!
1/
1$
1&
12
#2610
0!
0/
0$
#2615
1!
1/
1$
0&
02
#2620
1"
14
1,
0!
0/
0$
b011 :
b100 ;
#2625
1!
1/
1$
1&
12
#2630
0!
0/
0$
#2635
1!
1/
1$
0&
02
#2640
0"
04
0,
0!
0/
0$
#2645
1!
1/
1$
1&
12
#2650
0!
0/
0$
#2655
1!
1/
1$
0&
02
#2660
1"
14
1,
0!
0/
0$
b100 :
b011 ;
#2665
1!
1/
1$
1&
12
#2670
0!
0/
0$
#2675
1!
1/
1$
0&
02
#2680
0"
04
0,
0!
0/
0$
#2685
1!
1/
1$
1&
12
#2690
0!
0/
0$
#2695
1!
1/
1$
0&
02
#2700
1"
14
1,
0!
0/
0$
b101 :
b010 ;
1B
19
1'
#2705
1!
1/
1$
#2710
0!
0/
0$
#2715
1!
1/
1$
#2720
0"
04
0,
0!
0/
0$
1)
16
z'
b000 :
1C
09
b111 ;
0B
#2725
1!
1/
1$
#2730
0!
0/
0$
#2735
1!
1/
1$
#2740
1"
14
1,
0!
0/
0$
0)
06
0'
#2745
1!
1/
1$
#2750
0!
0/
0$
#2755
1!
1/
1$
#2760
0"
04
0,
0!
0/
0$
1)
16
z'
#2765
1!
1/
1$
#2770
0!
0/
0$
#2775
1!
1/
1$
#2780
1"
14
1,
0!
0/
0$
0)
06
0'
#2785
1!
1/
1$
#2790
0!
0/
0$
#2795
1!
1/
1$
#2800
0"
04
0,
0!
0/
0$
1)
16
z'
#2805
1!
1/
1$
#2810
0!
0/
0$
#2815
1!
1/
1$
#2820
1"
14
1,
0!
0/
0$
0)
06
0'
#2825
1!
1/
1$
#2830
0!
0/
0$
#2835
1!
1/
1$
#2840
0"
04
0,
0!
0/
0$
1)
16
z'
#2845
1!
1/
1$
#2850
0!
0/
0$
#2855
1!
1/
1$
#2860
1"
14
1,
0!
0/
0$
0)
06
0'
#2865
1!
1/
1$
#2870
0!
0/
0$
#2875
1!
1/
1$
#2880
0"
04
0,
0!
0/
0$
1)
16
z'
0)
06
0'
#2885
1!
1/
1$
1&
12
b10100010 +
b10100010 3
#2890
0!
0/
0$
#2895
1!
1/
1$
b10100010 A
19
0&
02
1'
#2900
1"
14
1,
0!
0/
0$
b001 :
0C
09
b110 ;
1B
19
1'
#2905
1!
1/
1$
1&
12
#2910
0!
0/
0$
#2915
1!
1/
1$
0&
02
#2920
0"
04
0,
0!
0/
0$
#2925
1!
1/
1$
1&
12
#2930
0!
0/
0$
#2935
1!
1/
1$
0&
02
#2940
1"
14
1,
0!
0/
0$
b010 :
b101 ;
0B
09
0'
#2945
1!
1/
1$
1&
12
#2950
0!
0/
0$
#2955
1!
1/
1$
0&
02
#2960
0"
04
0,
0!
0/
0$
#2965
1!
1/
1$
1&
12
#2970
0!
0/
0$
#2975
1!
1/
1$
0&
02
#2980
1"
14
1,
0!
0/
0$
b011 :
b100 ;
1B
19
1'
#2985
1!
1/
1$
1&
12
#2990
0!
0/
0$
#2995
1!
1/
1$
0&
02
#3000
0"
04
0,
0!
0/
0$
#3005
1!
1/
1$
1&
12
#3010
0!
0/
0$
#3015
1!
1/
1$
0&
02
#3020
1"
14
1,
0!
0/
0$
b100 :
b011 ;
0B
09
0'
#3025
1!
1/
1$
1&
12
#3030
0!
0/
0$
#3035
1!
1/
1$
0&
02
#3040
0"
04
0,
0!
0/
0$
#3045
1!
1/
1$
1&
12
#3050
0!
0/
0$
#3055
1!
1/
1$
0&
02
#3060
1"
14
1,
0!
0/
0$
b101 :
b010 ;
#3065
1!
1/
1$
#3070
0!
0/
0$
#3075
1!
1/
1$
#3080
0"
04
0,
0!
0/
0$
1)
16
z'
b000 :
1C
19
b111 ;
1B
#3085
1!
1/
1$
#3090
0!
0/
0$
#3095
1!
1/
1$
#3100
1"
14
1,
0!
0/
0$
0)
06
1'
#3105
1!
1/
1$
#3110
0!
0/
0$
#3115
1!
1/
1$
#3120
0"
04
0,
0!
0/
0$
1)
16
z'
#3125
1!
1/
1$
#3130
0!
0/
0$
#3135
1!
1/
1$
#3140
1"
14
1,
0!
0/
0$
0)
06
1'
#3145
1!
1/
1$
#3150
0!
0/
0$
#3155
1!
1/
1$
#3160
0"
04
0,
0!
0/
0$
1)
16
z'
#3165
1!
1/
1$
#3170
0!
0/
0$
#3175
1!
1/
1$
#3180
1"
14
1,
0!
0/
0$
0)
06
1'
#3185
1!
1/
1$
#3190
0!
0/
0$
#3195
1!
1/
1$
#3200
0"
04
0,
0!
0/
0$
1)
16
z'
#3205
1!
1/
1$
#3210
0!
0/
0$
#3215
1!
1/
1$
#3220
1"
14
1,
0!
0/
0$
0)
06
1'
#3225
1!
1/
1$
#3230
0!
0/
0$
#3235
1!
1/
1$
#3240
0"
04
0,
0!
0/
0$
1)
16
z'
0)
06
1'
#3245
1!
1/
1$
1&
12
b01011100 +
b01011100 3
#3250
0!
0/
0$
#3255
1!
1/
1$
b01011100 A
09
0&
02
0'
#3260
1"
14
1,
0!
0/
0$
b001 :
0C
19
b110 ;
0B
09
0'
#3265
1!
1/
1$
1&
12
#3270
0!
0/
0$
#3275
1!
1/
1$
0&
02
#3280
0"
04
0,
0!
0/
0$
#3285
1!
1/
1$
1&
12
#3290
0!
0/
0$
#3295
1!
1/
1$
0&
02
#3300
1"
14
1,
0!
0/
0$
b010 :
b101 ;
1B
19
1'
#3305
1!
1/
1$
1&
12
#3310
0!
0/
0$
#3315
1!
1/
1$
0&
02
#3320
0"
04
0,
0!
0/
0$
#3325
1!
1/
1$
1&
12
#3330
0!
0/
0$
#3335
1!
1/
1$
0&
02
#3340
1"
14
1,
0!
0/
0$
b011 :
b100 ;
0B
09
0'
#3345
1!
1/
1$
1&
12
#3350
0!
0/
0$
#3355
1!
1/
1$
0&
02
#3360
0"
04
0,
0!
0/
0$
#3365
1!
1/
1$
1&
12
#3370
0!
0/
0$
#3375
1!
1/
1$
0&
02
#3380
1"
14
1,
0!
0/
0$
b100 :
b011 ;
1B
19
1'
#3385
1!
1/
1$
1&
12
#3390
0!
0/
0$
#3395
1!
1/
1$
0&
02
#3400
0"
04
0,
0!
0/
0$
#3405
1!
1/
1$
1&
12
#3410
0!
0/
0$
#3415
1!
1/
1$
0&
02
#3420
1"
14
1,
0!
0/
0$
b101 :
b010 ;
#3425
1!
1/
1$
#3430
0!
0/
0$
#3435
1!
1/
1$
#3440
0"
04
0,
0!
0/
0$
1)
16
z'
b000 :
1C
09
b111 ;
0B
#3445
1!
1/
1$
#3450
0!
0/
0$
#3455
1!
1/
1$
#3460
1"
14
1,
0!
0/
0$
0)
06
0'
#3465
1!
1/
1$
#3470
0!
0/
0$
#3475
1!
1/
1$
#3480
0"
04
0,
0!
0/
0$
1)
16
z'
#3485
1!
1/
1$
#3490
0!
0/
0$
#3495
1!
1/
1$
#3500
1"
14
1,
0!
0/
0$
0)
06
0'
#3505
1!
1/
1$
#3510
0!
0/
0$
#3515
1!
1/
1$
#3520
0"
04
0,
0!
0/
0$
1)
16
z'
#3525
1!
1/
1$
#3530
0!
0/
0$
#3535
1!
1/
1$
